<?xml version="1.0"?>
<!DOCTYPE svg PUBLIC "-//W3C//DTD SVG 1.1//EN" "http://www.w3.org/Graphics/SVG/1.1/DTD/svg11.dtd">
<svg width="50.99999999999999mm" height="101.0mm" viewBox="0 0 50.99999999999999 101.0" xmlns="http://www.w3.org/2000/svg" version="1.1">
<g id="Body001" transform="translate(0.500000,39.437771) scale(1,-1)">
<path id="Body001_f0000"  d="M 2.6332267629550185e-14 -37.812229124746175 L 2.4e-14 -37.812229124746175 L -6.780000000000003e-15 -61.06222912474618 L 2.3322676295501848e-15 -61.06222912474619 L 2.6332267629550185e-14 -37.812229124746175 Z " stroke="#191919" stroke-width="0.35 px" style="stroke-width:0.35;stroke-miterlimit:4;stroke-dasharray:none;stroke-linecap:square;fill:#cccccc;fill-opacity:0.09999999999999998;fill-rule: evenodd"/>
<path id="Body001_f0001"  d="M 2.4e-14 -37.812229124746175 L 3.000000000000041 -37.812229124746175 L 3.00000000000004 -38.912229124746176 L 5.50000000000004 -38.912229124746176 L 5.500000000000053 -37.812229124746125 L 10.500000000000071 -37.812229124746125 L 10.500000000000032 -34.31222912474617 L 5.500000000000034 -34.312229124746175 L 5.500000000000034 -33.21222912474617 L 3.000000000000016 -33.21222912474614 L 3.000000000000047 -34.312229124746196 L 1.5987211554602254e-14 -34.31222912474614 L 5.000000000000004e-15 12.187770875253795 L 3.000000000000004 12.187770875253795 L 3.000000000000011 11.087770875253797 L 5.50000000000001 11.0877708752538 L 5.500000000000016 12.187770875253847 L 10.500000000000036 12.187770875253836 L 10.500000000000002 15.687770875253799 L 5.500000000000004 15.687770875253797 L 5.500000000000011 16.7877708752538 L 2.9999999999999876 16.787770875253837 L 3.000000000000017 15.68777087525377 L -7.105427357601002e-15 15.68777087525383 L 1.7763568394002506e-30 38.9377708752538 L 49.99999999999999 38.937770875253804 L 49.999999999999986 15.687770875253818 L 46.99999999999998 15.687770875253818 L 46.99999999999997 16.787770875253816 L 44.49999999999997 16.787770875253816 L 44.499999999999986 15.687770875253804 L 39.49999999999996 15.687770875253813 L 39.499999999999986 12.1877708752538 L 44.49999999999998 12.187770875253817 L 44.49999999999998 11.087770875253817 L 47.0 11.087770875253819 L 46.999999999999986 12.18777087525383 L 49.99999999999999 12.187770875253818 L 49.999999999999986 -34.31222912474617 L 46.999999999999986 -34.312229124746175 L 46.999999999999986 -33.21222912474617 L 44.499999999999986 -33.21222912474617 L 44.499999999999986 -34.31222912474619 L 39.499999999999964 -34.31222912474618 L 39.499999999999986 -37.81222912474619 L 44.499999999999986 -37.812229124746175 L 44.499999999999986 -38.912229124746176 L 47.0 -38.91222912474617 L 46.999999999999986 -37.81222912474617 L 50.0 -37.812229124746175 L 49.99999999999999 -61.06222912474618 L -3.1086244689504384e-30 -61.06222912474619 L 2.4e-14 -37.812229124746175 Z " stroke="#191919" stroke-width="0.35 px" style="stroke-width:0.35;stroke-miterlimit:4;stroke-dasharray:none;stroke-linecap:square;fill:#cccccc;fill-opacity:0.09999999999999998;fill-rule: evenodd"/>
<path id="Body001_f0002"  d="M 3.0000000000000746 -37.81222912474614 L 1.5987211554602254e-14 -37.81222912474614 L 4.994288599537972e-14 -37.812229124746175 L 3.000000000000042 -37.812229124746175 L 3.000000000000041 -37.812229124746175 Z " stroke="#191919" stroke-width="0.35 px" style="stroke-width:0.35;stroke-miterlimit:4;stroke-dasharray:none;stroke-linecap:square;fill:#cccccc;fill-opacity:0.09999999999999998;fill-rule: evenodd"/>
<path id="Body001_f0003"  d="M 49.999999999999986 -37.81222912474618 L 49.99999999999999 -61.06222912474618 L 2.3322676295501848e-15 -61.06222912474619 L 2.6332267629550185e-14 -37.812229124746175 L 3.000000000000042 -37.812229124746175 L 3.000000000000042 -38.912229124746176 L 5.500000000000041 -38.912229124746176 L 5.500000000000054 -37.812229124746125 L 10.500000000000071 -37.812229124746125 L 10.500000000000036 -34.31222912474617 L 5.500000000000035 -34.312229124746175 L 5.500000000000035 -33.21222912474617 L 3.0000000000000178 -33.21222912474614 L 3.0000000000000484 -34.3122291247462 L 1.7763568394002505e-14 -34.31222912474614 L 7.332267629550188e-15 12.187770875253795 L 3.0000000000000053 12.187770875253795 L 3.0000000000000124 11.087770875253797 L 5.500000000000011 11.0877708752538 L 5.500000000000017 12.187770875253847 L 10.500000000000039 12.187770875253834 L 10.500000000000005 15.687770875253799 L 5.500000000000005 15.687770875253797 L 5.500000000000012 16.7877708752538 L 2.9999999999999893 16.787770875253834 L 3.000000000000018 15.687770875253769 L -5.329070518200751e-15 15.68777087525383 L 2.33226762955019e-15 38.9377708752538 L 49.99999999999999 38.937770875253804 L 49.999999999999986 15.687770875253818 L 46.99999999999998 15.687770875253818 L 46.99999999999997 16.787770875253816 L 44.49999999999997 16.787770875253816 L 44.499999999999986 15.687770875253804 L 39.49999999999996 15.687770875253815 L 39.499999999999986 12.187770875253802 L 44.49999999999998 12.187770875253817 L 44.49999999999998 11.087770875253817 L 47.0 11.08777087525382 L 46.999999999999986 12.187770875253833 L 49.99999999999999 12.187770875253818 L 49.999999999999986 -34.31222912474618 L 46.999999999999986 -34.31222912474618 L 46.999999999999986 -33.21222912474618 L 44.499999999999986 -33.21222912474618 L 44.499999999999986 -34.31222912474619 L 39.499999999999964 -34.31222912474618 L 39.499999999999986 -37.81222912474619 L 44.499999999999986 -37.81222912474618 L 44.499999999999986 -38.91222912474618 L 47.0 -38.91222912474617 L 46.999999999999986 -37.81222912474617 L 50.0 -37.812229124746175 Z " stroke="#191919" stroke-width="0.35 px" style="stroke-width:0.35;stroke-miterlimit:4;stroke-dasharray:none;stroke-linecap:square;fill:#cccccc;fill-opacity:0.09999999999999998;fill-rule: evenodd"/>
<path id="Body001_f0004"  d="M -2.1316282072803006e-14 -61.06222912474618 L 49.99999999999998 -61.062229124746175 L 49.99999999999999 -61.06222912474618 L 2.3322676295501848e-15 -61.06222912474619 L 2.0339999999999992e-14 -61.062229124746196 Z " stroke="#191919" stroke-width="0.35 px" style="stroke-width:0.35;stroke-miterlimit:4;stroke-dasharray:none;stroke-linecap:square;fill:#cccccc;fill-opacity:0.09999999999999998;fill-rule: evenodd"/>
<path id="Body001_f0005"  d="M 49.999999999999986 -37.81222912474618 L 49.999999999999986 -37.81222912474617 L 49.99999999999999 -61.06222912474618 L 49.99999999999999 -61.06222912474618 L 49.999999999999986 -37.81222912474618 Z " stroke="#191919" stroke-width="0.35 px" style="stroke-width:0.35;stroke-miterlimit:4;stroke-dasharray:none;stroke-linecap:square;fill:#cccccc;fill-opacity:0.09999999999999998;fill-rule: evenodd"/>
<path id="Body001_f0006"  d="M 46.999999999999986 -37.81222912474618 L 46.999999999999986 -37.81222912474618 L 50.0 -37.812229124746175 L 49.999999999999986 -37.81222912474617 L 46.999999999999986 -37.812229124746175 Z " stroke="#191919" stroke-width="0.35 px" style="stroke-width:0.35;stroke-miterlimit:4;stroke-dasharray:none;stroke-linecap:square;fill:#cccccc;fill-opacity:0.09999999999999998;fill-rule: evenodd"/>
<path id="Body001_f0007"  d="M 46.999999999999986 -38.91222912474618 L 46.999999999999986 -38.91222912474618 L 46.999999999999986 -37.81222912474617 L 46.999999999999986 -37.812229124746175 L 46.999999999999986 -38.912229124746176 Z " stroke="#191919" stroke-width="0.35 px" style="stroke-width:0.35;stroke-miterlimit:4;stroke-dasharray:none;stroke-linecap:square;fill:#cccccc;fill-opacity:0.09999999999999998;fill-rule: evenodd"/>
<path id="Body001_f0008"  d="M 44.499999999999986 -38.91222912474618 L 44.499999999999986 -38.91222912474618 L 47.0 -38.91222912474617 L 46.999999999999986 -38.912229124746176 L 44.499999999999986 -38.912229124746176 Z " stroke="#191919" stroke-width="0.35 px" style="stroke-width:0.35;stroke-miterlimit:4;stroke-dasharray:none;stroke-linecap:square;fill:#cccccc;fill-opacity:0.09999999999999998;fill-rule: evenodd"/>
<path id="Body001_f0009"  d="M 44.499999999999986 -38.91222912474619 L 44.499999999999986 -37.81222912474617 L 44.499999999999986 -37.81222912474618 L 44.499999999999986 -38.91222912474618 L 44.499999999999986 -38.912229124746176 Z " stroke="#191919" stroke-width="0.35 px" style="stroke-width:0.35;stroke-miterlimit:4;stroke-dasharray:none;stroke-linecap:square;fill:#cccccc;fill-opacity:0.09999999999999998;fill-rule: evenodd"/>
<path id="Body001_f0010"  d="M 44.5 -37.812229124746175 L 39.499999999999964 -37.81222912474618 L 39.499999999999986 -37.81222912474618 L 44.499999999999986 -37.81222912474618 L 44.499999999999986 -37.812229124746175 Z " stroke="#191919" stroke-width="0.35 px" style="stroke-width:0.35;stroke-miterlimit:4;stroke-dasharray:none;stroke-linecap:square;fill:#cccccc;fill-opacity:0.09999999999999998;fill-rule: evenodd"/>
<path id="Body001_f0011"  d="M 39.499999999999986 -34.31222912474618 L 39.499999999999986 -34.31222912474618 L 39.499999999999986 -37.81222912474619 L 39.499999999999986 -37.812229124746175 L 39.499999999999986 -34.312229124746175 Z " stroke="#191919" stroke-width="0.35 px" style="stroke-width:0.35;stroke-miterlimit:4;stroke-dasharray:none;stroke-linecap:square;fill:#cccccc;fill-opacity:0.09999999999999998;fill-rule: evenodd"/>
<path id="Body001_f0012"  d="M 44.499999999999986 -34.31222912474618 L 44.499999999999986 -34.31222912474618 L 39.499999999999964 -34.31222912474618 L 39.499999999999986 -34.312229124746175 L 44.499999999999986 -34.312229124746175 Z " stroke="#191919" stroke-width="0.35 px" style="stroke-width:0.35;stroke-miterlimit:4;stroke-dasharray:none;stroke-linecap:square;fill:#cccccc;fill-opacity:0.09999999999999998;fill-rule: evenodd"/>
<path id="Body001_f0013"  d="M 44.499999999999986 -33.21222912474618 L 44.499999999999986 -33.21222912474618 L 44.499999999999986 -34.31222912474619 L 44.499999999999986 -34.312229124746175 L 44.499999999999986 -33.21222912474617 Z " stroke="#191919" stroke-width="0.35 px" style="stroke-width:0.35;stroke-miterlimit:4;stroke-dasharray:none;stroke-linecap:square;fill:#cccccc;fill-opacity:0.09999999999999998;fill-rule: evenodd"/>
<path id="Body001_f0014"  d="M 44.499999999999964 -33.21222912474617 L 47.0 -33.212229124746166 L 46.999999999999986 -33.21222912474618 L 44.499999999999986 -33.21222912474618 L 44.499999999999986 -33.21222912474617 Z " stroke="#191919" stroke-width="0.35 px" style="stroke-width:0.35;stroke-miterlimit:4;stroke-dasharray:none;stroke-linecap:square;fill:#cccccc;fill-opacity:0.09999999999999998;fill-rule: evenodd"/>
<path id="Body001_f0015"  d="M 46.999999999999986 -33.212229124746166 L 46.999999999999986 -34.31222912474619 L 46.999999999999986 -34.31222912474618 L 46.999999999999986 -33.21222912474618 L 46.999999999999986 -33.21222912474617 Z " stroke="#191919" stroke-width="0.35 px" style="stroke-width:0.35;stroke-miterlimit:4;stroke-dasharray:none;stroke-linecap:square;fill:#cccccc;fill-opacity:0.09999999999999998;fill-rule: evenodd"/>
<path id="Body001_f0016"  d="M 46.999999999999964 -34.31222912474618 L 50.0 -34.312229124746175 L 49.999999999999986 -34.31222912474618 L 46.999999999999986 -34.31222912474618 L 46.999999999999986 -34.312229124746175 Z " stroke="#191919" stroke-width="0.35 px" style="stroke-width:0.35;stroke-miterlimit:4;stroke-dasharray:none;stroke-linecap:square;fill:#cccccc;fill-opacity:0.09999999999999998;fill-rule: evenodd"/>
<path id="Body001_f0017"  d="M 49.999999999999986 12.187770875253818 L 49.999999999999986 12.187770875253818 L 49.999999999999986 -34.31222912474617 L 49.999999999999986 -34.31222912474618 L 49.99999999999999 12.187770875253818 Z " stroke="#191919" stroke-width="0.35 px" style="stroke-width:0.35;stroke-miterlimit:4;stroke-dasharray:none;stroke-linecap:square;fill:#cccccc;fill-opacity:0.09999999999999998;fill-rule: evenodd"/>
<path id="Body001_f0018"  d="M 46.99999999999998 12.187770875253818 L 46.99999999999998 12.187770875253818 L 49.99999999999999 12.187770875253818 L 49.999999999999986 12.187770875253818 L 46.99999999999998 12.187770875253818 Z " stroke="#191919" stroke-width="0.35 px" style="stroke-width:0.35;stroke-miterlimit:4;stroke-dasharray:none;stroke-linecap:square;fill:#cccccc;fill-opacity:0.09999999999999998;fill-rule: evenodd"/>
<path id="Body001_f0019"  d="M 46.99999999999998 11.087770875253819 L 46.99999999999998 11.087770875253819 L 46.999999999999986 12.187770875253833 L 46.99999999999998 12.187770875253818 L 46.99999999999998 11.087770875253819 Z " stroke="#191919" stroke-width="0.35 px" style="stroke-width:0.35;stroke-miterlimit:4;stroke-dasharray:none;stroke-linecap:square;fill:#cccccc;fill-opacity:0.09999999999999998;fill-rule: evenodd"/>
<path id="Body001_f0020"  d="M 44.49999999999998 11.087770875253817 L 44.49999999999998 11.087770875253817 L 47.0 11.08777087525382 L 46.99999999999998 11.087770875253819 L 44.49999999999998 11.087770875253817 Z " stroke="#191919" stroke-width="0.35 px" style="stroke-width:0.35;stroke-miterlimit:4;stroke-dasharray:none;stroke-linecap:square;fill:#cccccc;fill-opacity:0.09999999999999998;fill-rule: evenodd"/>
<path id="Body001_f0021"  d="M 44.499999999999986 11.087770875253804 L 44.499999999999986 12.187770875253829 L 44.49999999999998 12.187770875253817 L 44.49999999999998 11.087770875253817 L 44.49999999999998 11.087770875253817 Z " stroke="#191919" stroke-width="0.35 px" style="stroke-width:0.35;stroke-miterlimit:4;stroke-dasharray:none;stroke-linecap:square;fill:#cccccc;fill-opacity:0.09999999999999998;fill-rule: evenodd"/>
<path id="Body001_f0022"  d="M 44.5 12.187770875253815 L 39.49999999999996 12.187770875253813 L 39.49999999999998 12.187770875253815 L 44.49999999999998 12.187770875253817 L 44.49999999999998 12.187770875253817 Z " stroke="#191919" stroke-width="0.35 px" style="stroke-width:0.35;stroke-miterlimit:4;stroke-dasharray:none;stroke-linecap:square;fill:#cccccc;fill-opacity:0.09999999999999998;fill-rule: evenodd"/>
<path id="Body001_f0023"  d="M 39.49999999999998 15.687770875253815 L 39.49999999999998 15.687770875253815 L 39.499999999999986 12.187770875253802 L 39.49999999999998 12.187770875253815 L 39.49999999999998 15.687770875253815 Z " stroke="#191919" stroke-width="0.35 px" style="stroke-width:0.35;stroke-miterlimit:4;stroke-dasharray:none;stroke-linecap:square;fill:#cccccc;fill-opacity:0.09999999999999998;fill-rule: evenodd"/>
<path id="Body001_f0024"  d="M 44.49999999999998 15.687770875253817 L 44.49999999999998 15.687770875253817 L 39.49999999999996 15.687770875253815 L 39.49999999999998 15.687770875253815 L 44.49999999999998 15.687770875253817 Z " stroke="#191919" stroke-width="0.35 px" style="stroke-width:0.35;stroke-miterlimit:4;stroke-dasharray:none;stroke-linecap:square;fill:#cccccc;fill-opacity:0.09999999999999998;fill-rule: evenodd"/>
<path id="Body001_f0025"  d="M 44.49999999999997 16.787770875253816 L 44.49999999999997 16.787770875253816 L 44.499999999999986 15.687770875253804 L 44.49999999999998 15.687770875253817 L 44.49999999999997 16.787770875253816 Z " stroke="#191919" stroke-width="0.35 px" style="stroke-width:0.35;stroke-miterlimit:4;stroke-dasharray:none;stroke-linecap:square;fill:#cccccc;fill-opacity:0.09999999999999998;fill-rule: evenodd"/>
<path id="Body001_f0026"  d="M 44.49999999999995 16.787770875253816 L 46.999999999999986 16.787770875253816 L 46.99999999999997 16.787770875253816 L 44.49999999999997 16.787770875253816 L 44.49999999999997 16.787770875253816 Z " stroke="#191919" stroke-width="0.35 px" style="stroke-width:0.35;stroke-miterlimit:4;stroke-dasharray:none;stroke-linecap:square;fill:#cccccc;fill-opacity:0.09999999999999998;fill-rule: evenodd"/>
<path id="Body001_f0027"  d="M 46.999999999999986 16.787770875253834 L 46.999999999999986 15.687770875253806 L 46.99999999999998 15.687770875253818 L 46.99999999999997 16.787770875253816 L 46.99999999999997 16.787770875253816 Z " stroke="#191919" stroke-width="0.35 px" style="stroke-width:0.35;stroke-miterlimit:4;stroke-dasharray:none;stroke-linecap:square;fill:#cccccc;fill-opacity:0.09999999999999998;fill-rule: evenodd"/>
<path id="Body001_f0028"  d="M 46.99999999999996 15.687770875253818 L 49.99999999999999 15.687770875253818 L 49.99999999999998 15.687770875253818 L 46.99999999999998 15.687770875253818 L 46.99999999999998 15.687770875253818 Z " stroke="#191919" stroke-width="0.35 px" style="stroke-width:0.35;stroke-miterlimit:4;stroke-dasharray:none;stroke-linecap:square;fill:#cccccc;fill-opacity:0.09999999999999998;fill-rule: evenodd"/>
<path id="Body001_f0029"  d="M 49.999999999999986 15.687770875253818 L 49.999999999999986 15.687770875253818 L 49.99999999999999 38.937770875253804 L 49.99999999999999 38.937770875253804 L 49.999999999999986 15.687770875253818 Z " stroke="#191919" stroke-width="0.35 px" style="stroke-width:0.35;stroke-miterlimit:4;stroke-dasharray:none;stroke-linecap:square;fill:#cccccc;fill-opacity:0.09999999999999998;fill-rule: evenodd"/>
<path id="Body001_f0030"  d="M 50.00000000000001 38.937770875253804 L 4.3200000000000016e-15 38.9377708752538 L 2.33226762955019e-15 38.9377708752538 L 49.99999999999999 38.937770875253804 L 49.99999999999999 38.937770875253825 Z " stroke="#191919" stroke-width="0.35 px" style="stroke-width:0.35;stroke-miterlimit:4;stroke-dasharray:none;stroke-linecap:square;fill:#cccccc;fill-opacity:0.09999999999999998;fill-rule: evenodd"/>
<path id="Body001_f0031"  d="M 8.332267629550188e-15 15.687770875253795 L 6.000000000000004e-15 15.687770875253795 L 1.7763568394002506e-30 38.9377708752538 L 2.33226762955019e-15 38.9377708752538 L 5.333875531049564e-15 15.687770875253804 Z " stroke="#191919" stroke-width="0.35 px" style="stroke-width:0.35;stroke-miterlimit:4;stroke-dasharray:none;stroke-linecap:square;fill:#cccccc;fill-opacity:0.09999999999999998;fill-rule: evenodd"/>
<path id="Body001_f0032"  d="M 3.000000000000003 15.687770875253793 L 3.0000000000000053 15.687770875253793 L -5.329070518200751e-15 15.68777087525383 L 6.000000000000004e-15 15.687770875253795 L 3.000000000000004 15.687770875253795 Z " stroke="#191919" stroke-width="0.35 px" style="stroke-width:0.35;stroke-miterlimit:4;stroke-dasharray:none;stroke-linecap:square;fill:#cccccc;fill-opacity:0.09999999999999998;fill-rule: evenodd"/>
<path id="Body001_f0033"  d="M 3.00000000000001 16.787770875253795 L 3.0000000000000124 16.787770875253795 L 3.000000000000018 15.687770875253769 L 3.000000000000004 15.687770875253795 L 3.000000000000011 16.787770875253795 Z " stroke="#191919" stroke-width="0.35 px" style="stroke-width:0.35;stroke-miterlimit:4;stroke-dasharray:none;stroke-linecap:square;fill:#cccccc;fill-opacity:0.09999999999999998;fill-rule: evenodd"/>
<path id="Body001_f0034"  d="M 5.50000000000001 16.7877708752538 L 5.5000000000000115 16.7877708752538 L 2.9999999999999893 16.787770875253834 L 3.000000000000011 16.787770875253795 L 5.500000000000011 16.7877708752538 Z " stroke="#191919" stroke-width="0.35 px" style="stroke-width:0.35;stroke-miterlimit:4;stroke-dasharray:none;stroke-linecap:square;fill:#cccccc;fill-opacity:0.09999999999999998;fill-rule: evenodd"/>
<path id="Body001_f0035"  d="M 5.500000000000014 16.787770875253848 L 5.500000000000015 15.687770875253772 L 5.500000000000004 15.687770875253795 L 5.500000000000012 16.7877708752538 L 5.500000000000011 16.7877708752538 Z " stroke="#191919" stroke-width="0.35 px" style="stroke-width:0.35;stroke-miterlimit:4;stroke-dasharray:none;stroke-linecap:square;fill:#cccccc;fill-opacity:0.09999999999999998;fill-rule: evenodd"/>
<path id="Body001_f0036"  d="M 5.499999999999979 15.687770875253834 L 10.500000000000036 15.687770875253836 L 10.500000000000004 15.687770875253799 L 5.500000000000005 15.687770875253797 L 5.500000000000004 15.687770875253797 Z " stroke="#191919" stroke-width="0.35 px" style="stroke-width:0.35;stroke-miterlimit:4;stroke-dasharray:none;stroke-linecap:square;fill:#cccccc;fill-opacity:0.09999999999999998;fill-rule: evenodd"/>
<path id="Body001_f0037"  d="M 10.50000000000001 15.687770875253847 L 10.500000000000014 12.187770875253772 L 10.500000000000004 12.187770875253799 L 10.500000000000005 15.687770875253799 L 10.500000000000002 15.687770875253799 Z " stroke="#191919" stroke-width="0.35 px" style="stroke-width:0.35;stroke-miterlimit:4;stroke-dasharray:none;stroke-linecap:square;fill:#cccccc;fill-opacity:0.09999999999999998;fill-rule: evenodd"/>
<path id="Body001_f0038"  d="M 5.500000000000003 12.187770875253795 L 5.500000000000004 12.187770875253795 L 10.500000000000039 12.187770875253834 L 10.500000000000002 12.187770875253799 L 5.500000000000004 12.187770875253797 Z " stroke="#191919" stroke-width="0.35 px" style="stroke-width:0.35;stroke-miterlimit:4;stroke-dasharray:none;stroke-linecap:square;fill:#cccccc;fill-opacity:0.09999999999999998;fill-rule: evenodd"/>
<path id="Body001_f0039"  d="M 5.500000000000009 11.0877708752538 L 5.500000000000011 11.0877708752538 L 5.500000000000017 12.187770875253847 L 5.500000000000004 12.187770875253797 L 5.50000000000001 11.0877708752538 Z " stroke="#191919" stroke-width="0.35 px" style="stroke-width:0.35;stroke-miterlimit:4;stroke-dasharray:none;stroke-linecap:square;fill:#cccccc;fill-opacity:0.09999999999999998;fill-rule: evenodd"/>
<path id="Body001_f0040"  d="M 5.500000000000046 11.087770875253835 L 2.9999999999999876 11.087770875253833 L 3.000000000000012 11.087770875253797 L 5.500000000000011 11.0877708752538 L 5.50000000000001 11.0877708752538 Z " stroke="#191919" stroke-width="0.35 px" style="stroke-width:0.35;stroke-miterlimit:4;stroke-dasharray:none;stroke-linecap:square;fill:#cccccc;fill-opacity:0.09999999999999998;fill-rule: evenodd"/>
<path id="Body001_f0041"  d="M 3.000000000000017 11.087770875253772 L 3.000000000000016 12.187770875253845 L 3.000000000000005 12.187770875253793 L 3.0000000000000124 11.087770875253797 L 3.000000000000011 11.087770875253797 Z " stroke="#191919" stroke-width="0.35 px" style="stroke-width:0.35;stroke-miterlimit:4;stroke-dasharray:none;stroke-linecap:square;fill:#cccccc;fill-opacity:0.09999999999999998;fill-rule: evenodd"/>
<path id="Body001_f0042"  d="M 3.000000000000048 12.187770875253833 L -5.329070518200751e-15 12.18777087525383 L 1.286288599537973e-14 12.187770875253792 L 3.0000000000000053 12.187770875253795 L 3.000000000000004 12.187770875253795 Z " stroke="#191919" stroke-width="0.35 px" style="stroke-width:0.35;stroke-miterlimit:4;stroke-dasharray:none;stroke-linecap:square;fill:#cccccc;fill-opacity:0.09999999999999998;fill-rule: evenodd"/>
<path id="Body001_f0043"  d="M 2.3332267629550186e-14 -34.312229124746175 L 2.1e-14 -34.312229124746175 L 5.000000000000004e-15 12.187770875253795 L 1.286288599537973e-14 12.187770875253792 L -1.6612446895043556e-16 -34.31222912474617 Z " stroke="#191919" stroke-width="0.35 px" style="stroke-width:0.35;stroke-miterlimit:4;stroke-dasharray:none;stroke-linecap:square;fill:#cccccc;fill-opacity:0.09999999999999998;fill-rule: evenodd"/>
<path id="Body001_f0044"  d="M 3.000000000000033 -34.312229124746175 L 3.000000000000035 -34.312229124746175 L 1.7763568394002505e-14 -34.31222912474614 L 2.1e-14 -34.312229124746175 L 3.000000000000034 -34.312229124746175 Z " stroke="#191919" stroke-width="0.35 px" style="stroke-width:0.35;stroke-miterlimit:4;stroke-dasharray:none;stroke-linecap:square;fill:#cccccc;fill-opacity:0.09999999999999998;fill-rule: evenodd"/>
<path id="Body001_f0045"  d="M 3.0000000000000333 -33.21222912474617 L 3.0000000000000355 -33.21222912474617 L 3.0000000000000484 -34.3122291247462 L 3.000000000000034 -34.312229124746175 L 3.000000000000034 -33.21222912474617 Z " stroke="#191919" stroke-width="0.35 px" style="stroke-width:0.35;stroke-miterlimit:4;stroke-dasharray:none;stroke-linecap:square;fill:#cccccc;fill-opacity:0.09999999999999998;fill-rule: evenodd"/>
<path id="Body001_f0046"  d="M 5.500000000000033 -33.21222912474617 L 5.500000000000035 -33.21222912474617 L 3.0000000000000178 -33.21222912474614 L 3.000000000000034 -33.21222912474617 L 5.500000000000034 -33.21222912474617 Z " stroke="#191919" stroke-width="0.35 px" style="stroke-width:0.35;stroke-miterlimit:4;stroke-dasharray:none;stroke-linecap:square;fill:#cccccc;fill-opacity:0.09999999999999998;fill-rule: evenodd"/>
<path id="Body001_f0047"  d="M 5.500000000000046 -33.21222912474612 L 5.500000000000047 -34.312229124746196 L 5.500000000000035 -34.312229124746175 L 5.500000000000035 -33.21222912474617 L 5.500000000000034 -33.21222912474617 Z " stroke="#191919" stroke-width="0.35 px" style="stroke-width:0.35;stroke-miterlimit:4;stroke-dasharray:none;stroke-linecap:square;fill:#cccccc;fill-opacity:0.09999999999999998;fill-rule: evenodd"/>
<path id="Body001_f0048"  d="M 5.500000000000005 -34.31222912474613 L 10.500000000000064 -34.312229124746125 L 10.500000000000034 -34.31222912474617 L 5.500000000000035 -34.312229124746175 L 5.500000000000034 -34.312229124746175 Z " stroke="#191919" stroke-width="0.35 px" style="stroke-width:0.35;stroke-miterlimit:4;stroke-dasharray:none;stroke-linecap:square;fill:#cccccc;fill-opacity:0.09999999999999998;fill-rule: evenodd"/>
<path id="Body001_f0049"  d="M 10.50000000000005 -34.31222912474612 L 10.500000000000052 -37.812229124746196 L 10.50000000000004 -37.81222912474617 L 10.500000000000036 -34.31222912474617 L 10.500000000000032 -34.31222912474617 Z " stroke="#191919" stroke-width="0.35 px" style="stroke-width:0.35;stroke-miterlimit:4;stroke-dasharray:none;stroke-linecap:square;fill:#cccccc;fill-opacity:0.09999999999999998;fill-rule: evenodd"/>
<path id="Body001_f0050"  d="M 5.500000000000039 -37.812229124746175 L 5.500000000000041 -37.812229124746175 L 10.500000000000071 -37.812229124746125 L 10.500000000000039 -37.81222912474617 L 5.50000000000004 -37.812229124746175 Z " stroke="#191919" stroke-width="0.35 px" style="stroke-width:0.35;stroke-miterlimit:4;stroke-dasharray:none;stroke-linecap:square;fill:#cccccc;fill-opacity:0.09999999999999998;fill-rule: evenodd"/>
<path id="Body001_f0051"  d="M 5.500000000000039 -38.912229124746176 L 5.500000000000041 -38.912229124746176 L 5.500000000000054 -37.812229124746125 L 5.50000000000004 -37.812229124746175 L 5.50000000000004 -38.912229124746176 Z " stroke="#191919" stroke-width="0.35 px" style="stroke-width:0.35;stroke-miterlimit:4;stroke-dasharray:none;stroke-linecap:square;fill:#cccccc;fill-opacity:0.09999999999999998;fill-rule: evenodd"/>
<path id="Body001_f0052"  d="M 5.500000000000073 -38.91222912474614 L 3.000000000000014 -38.91222912474614 L 3.0000000000000417 -38.912229124746176 L 5.500000000000041 -38.912229124746176 L 5.50000000000004 -38.912229124746176 Z " stroke="#191919" stroke-width="0.35 px" style="stroke-width:0.35;stroke-miterlimit:4;stroke-dasharray:none;stroke-linecap:square;fill:#cccccc;fill-opacity:0.09999999999999998;fill-rule: evenodd"/>
<path id="Body001_f0053"  d="M 3.000000000000054 -38.912229124746204 L 3.0000000000000533 -37.812229124746125 L 3.000000000000042 -37.812229124746175 L 3.000000000000042 -38.912229124746176 L 3.00000000000004 -38.912229124746176 Z " stroke="#191919" stroke-width="0.35 px" style="stroke-width:0.35;stroke-miterlimit:4;stroke-dasharray:none;stroke-linecap:square;fill:#cccccc;fill-opacity:0.09999999999999998;fill-rule: evenodd"/>
<title>b'side'</title>
</g>
</svg>