<?xml version="1.0" encoding="UTF-8" standalone="no"?>
<svg
   viewBox="0 0 2970 2100"
   height="210mm"
   width="297mm"
   version="1.2"
   id="svg488"
   sodipodi:docname="enclosure-Page002.svg"
   inkscape:version="1.2.1 (9c6d41e410, 2022-07-14, custom)"
   xmlns:inkscape="http://www.inkscape.org/namespaces/inkscape"
   xmlns:sodipodi="http://sodipodi.sourceforge.net/DTD/sodipodi-0.dtd"
   xmlns="http://www.w3.org/2000/svg"
   xmlns:svg="http://www.w3.org/2000/svg">
  <sodipodi:namedview
     id="namedview490"
     pagecolor="#505050"
     bordercolor="#eeeeee"
     borderopacity="1"
     inkscape:showpageshadow="0"
     inkscape:pageopacity="0"
     inkscape:pagecheckerboard="0"
     inkscape:deskcolor="#505050"
     inkscape:document-units="mm"
     showgrid="false"
     inkscape:zoom="0.54869544"
     inkscape:cx="283.39948"
     inkscape:cy="417.35357"
     inkscape:window-width="1874"
     inkscape:window-height="1051"
     inkscape:window-x="0"
     inkscape:window-y="0"
     inkscape:window-maximized="1"
     inkscape:current-layer="Page002" />
  <title
     id="title2">FreeCAD SVG Export</title>
  <desc
     id="desc4">Drawing page: Page002 exported from FreeCAD document: enclosure</desc>
  <defs
     id="defs6" />
  <g
     inkscape:label="TechDraw"
     id="Page002"
     inkscape:groupmode="layer">
    <path
       id="path482"
       style="font-style:normal;font-weight:400;font-size:35.2778px;font-family:'Noto Sans';fill:none;stroke:#000000;stroke-width:5.00000031;stroke-linecap:round;stroke-linejoin:bevel;stroke-opacity:1;stroke-dasharray:none"
       d="m 1376.5,1223 c 0,9.665 -7.835,17.5 -17.5,17.5 -9.665,0 -17.5,-7.835 -17.5,-17.5 0,-9.665 7.835,-17.5 17.5,-17.5 9.665,0 17.5,7.835 17.5,17.5 m 240,0 c 0,9.665 -7.835,17.5 -17.5,17.5 -9.665,0 -17.5,-7.835 -17.5,-17.5 0,-9.665 7.835,-17.5 17.5,-17.5 9.665,0 17.5,7.835 17.5,17.5 m 510,0 c 0,9.665 -7.835,17.5 -17.5,17.5 -9.665,0 -17.5,-7.835 -17.5,-17.5 0,-9.665 7.835,-17.5 17.5,-17.5 9.665,0 17.5,7.835 17.5,17.5 m 240,0 c 0,9.665 -7.835,17.5 -17.5,17.5 -9.665,0 -17.5,-7.835 -17.5,-17.5 0,-9.665 7.835,-17.5 17.5,-17.5 9.665,0 17.5,7.835 17.5,17.5 m 2.5,-120 c 0,77.32 -62.68,140 -140,140 -77.32,0 -140,-62.68 -140,-140 0,-77.3199 62.68,-140.00002 140,-140.00002 77.32,0 140,62.68012 140,140.00002 m -750,0 c 0,77.32 -62.6801,140 -140,140 -77.3199,0 -140,-62.68 -140,-140 0,-77.3199 62.6801,-140.00002 140,-140.00002 77.3199,0 140,62.68012 140,140.00002 M 1376.5,982.99998 c 0,9.665 -7.835,17.50002 -17.5,17.50002 -9.665,0 -17.5,-7.83502 -17.5,-17.50002 0,-9.665 7.835,-17.5 17.5,-17.5 9.665,0 17.5,7.835 17.5,17.5 m 240,0 c 0,9.665 -7.835,17.50002 -17.5,17.50002 -9.665,0 -17.5,-7.83502 -17.5,-17.50002 0,-9.665 7.835,-17.5 17.5,-17.5 9.665,0 17.5,7.835 17.5,17.5 m 510,0 c 0,9.665 -7.835,17.50002 -17.5,17.50002 -9.665,0 -17.5,-7.83502 -17.5,-17.50002 0,-9.665 7.835,-17.5 17.5,-17.5 9.665,0 17.5,7.835 17.5,17.5 m 240,0 c 0,9.665 -7.835,17.50002 -17.5,17.50002 -9.665,0 -17.5,-7.83502 -17.5,-17.50002 0,-9.665 7.835,-17.5 17.5,-17.5 9.665,0 17.5,7.835 17.5,17.5 M 1376.5,1223 c 0,9.665 -7.835,17.5 -17.5,17.5 -9.665,0 -17.5,-7.835 -17.5,-17.5 0,-9.665 7.835,-17.5 17.5,-17.5 9.665,0 17.5,7.835 17.5,17.5 m 0,-240.00002 c 0,9.665 -7.835,17.50002 -17.5,17.50002 -9.665,0 -17.5,-7.83502 -17.5,-17.50002 0,-9.665 7.835,-17.5 17.5,-17.5 9.665,0 17.5,7.835 17.5,17.5 M 1616.5,1223 c 0,9.665 -7.835,17.5 -17.5,17.5 -9.665,0 -17.5,-7.835 -17.5,-17.5 0,-9.665 7.835,-17.5 17.5,-17.5 9.665,0 17.5,7.835 17.5,17.5 m 510,-240.00002 c 0,9.665 -7.835,17.50002 -17.5,17.50002 -9.665,0 -17.5,-7.83502 -17.5,-17.50002 0,-9.665 7.835,-17.5 17.5,-17.5 9.665,0 17.5,7.835 17.5,17.5 m -510,0 c 0,9.665 -7.835,17.50002 -17.5,17.50002 -9.665,0 -17.5,-7.83502 -17.5,-17.50002 0,-9.665 7.835,-17.5 17.5,-17.5 9.665,0 17.5,7.835 17.5,17.5 m 750,0 c 0,9.665 -7.835,17.50002 -17.5,17.50002 -9.665,0 -17.5,-7.83502 -17.5,-17.50002 0,-9.665 7.835,-17.5 17.5,-17.5 9.665,0 17.5,7.835 17.5,17.5 m 0,240.00002 c 0,9.665 -7.835,17.5 -17.5,17.5 -9.665,0 -17.5,-7.835 -17.5,-17.5 0,-9.665 7.835,-17.5 17.5,-17.5 9.665,0 17.5,7.835 17.5,17.5 m -240,0 c 0,9.665 -7.835,17.5 -17.5,17.5 -9.665,0 -17.5,-7.835 -17.5,-17.5 0,-9.665 7.835,-17.5 17.5,-17.5 9.665,0 17.5,7.835 17.5,17.5 M 1619,1103 c 0,77.32 -62.6801,140 -140,140 -77.3199,0 -140,-62.68 -140,-140 0,-77.3199 62.6801,-140.00002 140,-140.00002 77.3199,0 140,62.68012 140,140.00002 m 750,0 c 0,77.32 -62.68,140 -140,140 -77.32,0 -140,-62.68 -140,-140 0,-77.3199 62.68,-140.00002 140,-140.00002 77.32,0 140,62.68012 140,140.00002 m 216,214.5 V 1550 H 385 v -232.5 h 35 v -35 H 385 V 1150 h 30 V 949.99998 h -30 v -132.5 h 35 v -35 h -35 v -232.5 h 2200 v 232.5 h -35 v 35 h 35 v 132.5 h -30 V 1150 h 30 v 132.5 h -35 v 35 h 35" />
  </g>
</svg>
