{
   "_id":{
      "$oid":"5f03a1113f581412a6fefe9d"
	},
   "name":"3x3_1.5_rack",
   "description":"3D printed rack",
   "type":"TUBE_RACK",
   "color":"#f0e769",
   "width":50,
   "length":50,
   "firstWellCenterX":10,
   "firstWellCenterY":10,
   "wellDiameter":10.0,
   "wellSeparationX":15,
   "wellSeparationY":15,
   "wellsColumns":3,
   "wellsRows":3,
   "defaultTopPosition":50,
   "defaultBottomPosition":5,
   "defaultMaxVolume":1500,
   "rotation":0
}
