$1=255
$H
; load tool 1
G0 G90 X42 Y275 Z39
G1 G90 X42 Y310 Z39 F1000
G0 G90 X42 Y274 Z39
; park tool 1
G0 G90 X42 Y275 Z41
G1 G90 X42 Y310 Z41 F1000
G0 G90 X42 Y274 Z41
c; load tool 2
G0 G90 X316 Y279 Z45
G1 G90 X316 Y312 Z45 F1000
G0 G90 X316 Y276 Z45
; park tool 2
G0 G90 X316 Y276 Z45
G1 G90 X316 Y311 Z45 F1000
G0 G90 X316 Y277 Z45

; back off
G0 G91 Y-10
G4 P0
$1=20
$H
